{"total":150,"per_page":15,"current_page":1,"last_page":10,"next_page_url":"http:\/\/vuetable.ratiw.net\/api\/users?page=2","prev_page_url":null,"from":1,"to":15,"data":[{"id":1,"name":"Ignatius Breitenberg","nickname":"quisquam","email":"hamill.raegan@example.com","birthdate":"1999-12-13","gender":"M","group_id":"5","created_at":"2016-04-21 09:21:33","updated_at":"2016-04-21 09:21:33"},{"id":2,"name":"Chaz Considine","nickname":"ipsam","email":"rmonahan@example.net","birthdate":"2012-03-16","gender":"F","group_id":"2","created_at":"2016-04-21 09:21:33","updated_at":"2016-04-21 09:21:33"},{"id":3,"name":"Aubrey Wuckert","nickname":"ipsum","email":"haskell.beatty@example.com","birthdate":"2012-12-11","gender":"F","group_id":"3","created_at":"2016-04-21 09:21:33","updated_at":"2016-04-21 09:21:33"},{"id":4,"name":"Zelma Gibson","nickname":"atque","email":"angelina50@example.net","birthdate":"2002-01-31","gender":"F","group_id":"1","created_at":"2016-04-21 09:21:33","updated_at":"2016-04-21 09:21:33"},{"id":5,"name":"Mr. Rashad Grimes","nickname":"debitis","email":"mann.herbert@example.net","birthdate":"1995-09-05","gender":"F","group_id":"2","created_at":"2016-04-21 09:21:33","updated_at":"2016-04-21 09:21:33"},{"id":6,"name":"Jazlyn McDermott","nickname":"dolor","email":"mafalda24@example.com","birthdate":"2011-01-26","gender":"M","group_id":"3","created_at":"2016-04-21 09:21:33","updated_at":"2016-04-21 09:21:33"},{"id":7,"name":"Annabell Walter","nickname":"accusamus","email":"colin00@example.org","birthdate":"1995-05-08","gender":"F","group_id":"1","created_at":"2016-04-21 09:21:33","updated_at":"2016-04-21 09:21:33"},{"id":8,"name":"Brooklyn Reichel","nickname":"rerum","email":"fgoldner@example.org","birthdate":"1999-08-21","gender":"M","group_id":"4","created_at":"2016-04-21 09:21:33","updated_at":"2016-04-21 09:21:33"},{"id":9,"name":"Clementine Harber","nickname":"odio","email":"flossie84@example.com","birthdate":"1999-06-06","gender":"F","group_id":"4","created_at":"2016-04-21 09:21:33","updated_at":"2016-04-21 09:21:33"},{"id":10,"name":"Hallie McLaughlin Jr.","nickname":"aperiam","email":"ojacobson@example.com","birthdate":"1994-10-03","gender":"M","group_id":"5","created_at":"2016-04-21 09:21:33","updated_at":"2016-04-21 09:21:33"},{"id":11,"name":"Wanda Kovacek","nickname":"illo","email":"jannie43@example.net","birthdate":"1997-03-06","gender":"M","group_id":"3","created_at":"2016-04-21 09:21:33","updated_at":"2016-04-21 09:21:33"},{"id":12,"name":"Miss Kayli Smith","nickname":"consequatur","email":"marvin.gus@example.net","birthdate":"2015-01-27","gender":"M","group_id":"1","created_at":"2016-04-21 09:21:33","updated_at":"2016-04-21 09:21:33"},{"id":13,"name":"Jedediah Hegmann","nickname":"veniam","email":"marcus.huels@example.org","birthdate":"2003-02-15","gender":"M","group_id":"4","created_at":"2016-04-21 09:21:33","updated_at":"2016-04-21 09:21:33"},{"id":14,"name":"Mr. Scottie Kuphal","nickname":"omnis","email":"bbraun@example.net","birthdate":"1987-02-18","gender":"M","group_id":"5","created_at":"2016-04-21 09:21:33","updated_at":"2016-04-21 09:21:33"},{"id":15,"name":"Mr. Haleigh Connelly","nickname":"porro","email":"dfisher@example.com","birthdate":"1995-12-28","gender":"F","group_id":"3","created_at":"2016-04-21 09:21:33","updated_at":"2016-04-21 09:21:33"}]}